…
``` r

out_direct$est_p_random
#>   mean lower upper
#> 1    0     0     0
```

The second output contains several corrected ranking-based quantities of
interest.

``` r

out_direct$results
#> # A tibble: 44 × 6
#>    item           qoi              outcome              mean  lower upper
#>    <chr>          <chr>            <chr>               <dbl>  <dbl> <dbl>
#>  1 app_identity_1 average rank     Avg: app_identity_1 3.00  2.91   3.08 
#>  2 app_identity_1 marginal ranking Ranked 1            0.121 0.0953 0.153
#>  3 app_identity_1 marginal ranking Ranked 2            0.173 0.142  0.205
#>  4 app_identity_1 marginal ranking Ranked 3            0.289 0.258  0.330
#>  5 app_identity_1 marginal ranking Ranked 4            0.416 0.383  0.457
#>  6 app_identity_1 pairwise ranking v. app_identity_2   0.410 0.374  0.447
#>  7 app_identity_1 pairwise ranking v. app_identity_3   0.245 0.210  0.283
#>  8 app_identity_1 pairwise ranking v. app_identity_4   0.344 0.303  0.381
#>  9 app_identity_1 top-k ranking    Top-1               0.121 0.0953 0.153
#> 10 app_identity_1 top-k ranking    Top-2               0.295 0.257  0.331
#> # ℹ 34 more rows
```
…
